<svg width="12" height="11" viewBox="0 0 12 11" fill="none" xmlns="http://www.w3.org/2000/svg">
<path d="M2.84159 1.57501L1.83325 9.16668L5.99992 6.66668L10.1666 9.16668L9.15825 1.56668" stroke="white" stroke-width="2" stroke-linecap="round" stroke-linejoin="round"/>
</svg>
